TITLE	542_10nM_a594_CB
DATA TYPE	FLUORESCENCE SPECTRUM
ORIGIN	JASCO
OWNER	
DATE	17/12/07
TIME	12:27:26
SPECTROMETER/DATA SYSTEM	
LOCALE	1033
RESOLUTION	
DELTAX	1
XUNITS	NANOMETERS
YUNITS	INTENSITY
FIRSTX	  562.0000
LASTX	  800.0000
NPOINTS	     239
FIRSTY	     1.35827
MAXY	    33.35206
MINY	     0.28857
XYDATA
562.0000	1.35827
563.0000	1.36243
564.0000	1.38365
565.0000	1.4323
566.0000	1.50332
567.0000	1.59255
568.0000	1.71447
569.0000	1.85495
570.0000	2.0232
571.0000	2.22296
572.0000	2.44785
573.0000	2.72096
574.0000	3.02711
575.0000	3.37982
576.0000	3.79939
577.0000	4.24442
578.0000	4.76002
579.0000	5.35285
580.0000	6.01754
581.0000	6.75652
582.0000	7.53681
583.0000	8.38379
584.0000	9.29653
585.0000	10.2692
586.0000	11.2994
587.0000	12.409
588.0000	13.581
589.0000	14.7981
590.0000	16.0483
591.0000	17.3308
592.0000	18.6138
593.0000	19.964
594.0000	21.3196
595.0000	22.6114
596.0000	23.8751
597.0000	25.0943
598.0000	26.2976
599.0000	27.3984
600.0000	28.4563
601.0000	29.3992
602.0000	30.3368
603.0000	31.1089
604.0000	31.7754
605.0000	32.3085
606.0000	32.718
607.0000	33.0345
608.0000	33.2601
609.0000	33.3521
610.0000	33.2977
611.0000	33.1742
612.0000	32.9402
613.0000	32.6439
614.0000	32.2207
615.0000	31.73
616.0000	31.1742
617.0000	30.5311
618.0000	29.8192
619.0000	29.1058
620.0000	28.3462
621.0000	27.5515
622.0000	26.7704
623.0000	25.9469
624.0000	25.0758
625.0000	24.1991
626.0000	23.3568
627.0000	22.5084
628.0000	21.6379
629.0000	20.8094
630.0000	19.95
631.0000	19.0871
632.0000	18.2862
633.0000	17.5116
634.0000	16.7917
635.0000	16.0696
636.0000	15.3388
637.0000	14.6588
638.0000	14.0218
639.0000	13.3798
640.0000	12.7658
641.0000	12.2198
642.0000	11.6814
643.0000	11.1641
644.0000	10.6958
645.0000	10.2308
646.0000	9.79962
647.0000	9.42786
648.0000	9.05538
649.0000	8.70075
650.0000	8.38765
651.0000	8.05876
652.0000	7.75651
653.0000	7.4895
654.0000	7.22463
655.0000	6.97042
656.0000	6.73694
657.0000	6.52228
658.0000	6.31261
659.0000	6.11291
660.0000	5.92108
661.0000	5.74484
662.0000	5.58282
663.0000	5.40468
664.0000	5.21698
665.0000	5.06989
666.0000	4.91741
667.0000	4.75415
668.0000	4.61891
669.0000	4.46407
670.0000	4.33139
671.0000	4.20137
672.0000	4.06983
673.0000	3.93566
674.0000	3.80627
675.0000	3.67459
676.0000	3.55646
677.0000	3.43242
678.0000	3.30451
679.0000	3.18889
680.0000	3.07814
681.0000	2.96624
682.0000	2.86189
683.0000	2.75962
684.0000	2.6627
685.0000	2.5609
686.0000	2.46231
687.0000	2.36916
688.0000	2.26137
689.0000	2.18238
690.0000	2.09916
691.0000	2.01169
692.0000	1.93874
693.0000	1.86094
694.0000	1.7779
695.0000	1.70313
696.0000	1.64133
697.0000	1.58226
698.0000	1.51527
699.0000	1.46072
700.0000	1.40724
701.0000	1.35345
702.0000	1.30002
703.0000	1.25241
704.0000	1.21398
705.0000	1.17128
706.0000	1.12393
707.0000	1.08858
708.0000	1.05652
709.0000	1.02012
710.0000	0.989971
711.0000	0.953601
712.0000	0.918743
713.0000	0.886759
714.0000	0.863939
715.0000	0.838905
716.0000	0.806385
717.0000	0.778262
718.0000	0.75259
719.0000	0.729296
720.0000	0.707824
721.0000	0.686383
722.0000	0.663751
723.0000	0.645346
724.0000	0.621307
725.0000	0.608878
726.0000	0.597464
727.0000	0.58482
728.0000	0.570531
729.0000	0.561729
730.0000	0.548074
731.0000	0.532949
732.0000	0.52339
733.0000	0.513859
734.0000	0.501942
735.0000	0.495228
736.0000	0.485699
737.0000	0.478785
738.0000	0.472762
739.0000	0.467207
740.0000	0.464993
741.0000	0.464608
742.0000	0.453188
743.0000	0.443106
744.0000	0.435438
745.0000	0.431045
746.0000	0.424141
747.0000	0.418563
748.0000	0.415596
749.0000	0.405198
750.0000	0.396131
751.0000	0.394117
752.0000	0.388712
753.0000	0.383598
754.0000	0.376813
755.0000	0.373831
756.0000	0.367251
757.0000	0.358528
758.0000	0.351727
759.0000	0.350063
760.0000	0.348358
761.0000	0.344377
762.0000	0.33992
763.0000	0.335529
764.0000	0.332717
765.0000	0.330106
766.0000	0.331404
767.0000	0.32911
768.0000	0.327533
769.0000	0.323213
770.0000	0.320387
771.0000	0.31797
772.0000	0.312793
773.0000	0.311313
774.0000	0.312472
775.0000	0.31237
776.0000	0.312504
777.0000	0.30779
778.0000	0.304187
779.0000	0.30297
780.0000	0.303711
781.0000	0.302972
782.0000	0.301311
783.0000	0.299257
784.0000	0.298681
785.0000	0.29712
786.0000	0.298518
787.0000	0.296621
788.0000	0.296134
789.0000	0.294334
790.0000	0.293505
791.0000	0.293726
792.0000	0.293549
793.0000	0.295296
794.0000	0.294494
795.0000	0.291757
796.0000	0.292223
797.0000	0.290506
798.0000	0.28933
799.0000	0.289089
800.0000	0.288565

##### Extended Information
[Comments]
Sample name	542_10nM_a594_CB
Comment
User
Division
Company	EMBL

[Detailed Information]
Creation date	12/7/2017 12:27 PM

Data array type	Linear data array
Horizontal axis	Wavelength [nm]
Vertical axis	Int.
Start	562 nm
End	800 nm
Data interval	1 nm
Data points	239     

[Measurement Information]
Model name	FP-8500
Serial No.	C010561452
  Ex filter holder	None
  Em filter holder	None

Accessory	ETC-815
Accessory S/N	A003861516
  Temperature	21.00 C
  Control sensor	Holder
  Monitor sensor	Holder
  Start mode	Start immediately

Accessory	FDP-837
Accessory S/N	A002061537
  Polarizer	Ex 0 degree, Em 0 degree

Measurement date	12/7/2017 12:27 PM

Mode	Emission
Ex bandwidth	5 nm
Em bandwidth	5 nm
Response	1 sec
Sensitivity	Medium
Measurement range	562 - 800 nm
Data interval	1 nm
Ex wavelength	542.0 nm
Scan speed	1000 nm/min
Auto gain	Off
Shutter control	Open only for measurement
Light source	Xe lamp
Filter	Stop scan for exchanging filter
Blank correction	Off

