TITLE	582_10nM_cascade_blue
DATA TYPE	FLUORESCENCE SPECTRUM
ORIGIN	JASCO
OWNER	
DATE	17/12/07
TIME	11:58:58
SPECTROMETER/DATA SYSTEM	
LOCALE	1033
RESOLUTION	
DELTAX	1
XUNITS	NANOMETERS
YUNITS	INTENSITY
FIRSTX	  602.0000
LASTX	  800.0000
NPOINTS	     199
FIRSTY	     2.05162
MAXY	     2.05162
MINY	     0.32836
XYDATA
602.0000	2.05162
603.0000	1.82451
604.0000	1.64235
605.0000	1.49404
606.0000	1.37571
607.0000	1.27645
608.0000	1.20103
609.0000	1.12895
610.0000	1.06251
611.0000	1.00619
612.0000	0.959418
613.0000	0.913141
614.0000	0.876529
615.0000	0.828804
616.0000	0.792659
617.0000	0.759848
618.0000	0.733186
619.0000	0.706306
620.0000	0.684797
621.0000	0.665426
622.0000	0.649728
623.0000	0.63538
624.0000	0.622383
625.0000	0.610197
626.0000	0.594371
627.0000	0.582042
628.0000	0.568685
629.0000	0.556379
630.0000	0.545856
631.0000	0.540959
632.0000	0.538522
633.0000	0.527896
634.0000	0.521488
635.0000	0.516561
636.0000	0.51213
637.0000	0.51101
638.0000	0.507577
639.0000	0.503896
640.0000	0.499616
641.0000	0.492382
642.0000	0.491492
643.0000	0.493896
644.0000	0.489512
645.0000	0.484503
646.0000	0.485739
647.0000	0.481028
648.0000	0.47598
649.0000	0.475339
650.0000	0.469801
651.0000	0.467005
652.0000	0.462868
653.0000	0.459318
654.0000	0.451956
655.0000	0.448425
656.0000	0.446243
657.0000	0.439453
658.0000	0.43893
659.0000	0.434022
660.0000	0.432155
661.0000	0.427287
662.0000	0.425158
663.0000	0.420906
664.0000	0.416138
665.0000	0.41074
666.0000	0.40779
667.0000	0.406495
668.0000	0.404101
669.0000	0.400457
670.0000	0.402075
671.0000	0.39822
672.0000	0.400927
673.0000	0.400819
674.0000	0.400197
675.0000	0.402866
676.0000	0.400557
677.0000	0.4035
678.0000	0.401911
679.0000	0.39963
680.0000	0.403019
681.0000	0.404835
682.0000	0.405626
683.0000	0.40721
684.0000	0.40921
685.0000	0.408717
686.0000	0.409488
687.0000	0.4077
688.0000	0.40895
689.0000	0.408429
690.0000	0.40881
691.0000	0.413781
692.0000	0.411563
693.0000	0.408238
694.0000	0.40823
695.0000	0.409852
696.0000	0.410965
697.0000	0.407118
698.0000	0.406684
699.0000	0.408387
700.0000	0.40678
701.0000	0.404902
702.0000	0.4037
703.0000	0.399929
704.0000	0.398415
705.0000	0.397572
706.0000	0.395933
707.0000	0.38991
708.0000	0.38263
709.0000	0.379542
710.0000	0.377316
711.0000	0.382082
712.0000	0.376281
713.0000	0.37671
714.0000	0.376171
715.0000	0.376047
716.0000	0.371917
717.0000	0.373937
718.0000	0.37264
719.0000	0.367919
720.0000	0.370732
721.0000	0.36803
722.0000	0.369362
723.0000	0.367914
724.0000	0.369975
725.0000	0.369943
726.0000	0.370166
727.0000	0.365078
728.0000	0.362942
729.0000	0.364204
730.0000	0.360585
731.0000	0.358199
732.0000	0.3584
733.0000	0.354224
734.0000	0.351672
735.0000	0.354265
736.0000	0.35424
737.0000	0.35433
738.0000	0.352001
739.0000	0.346328
740.0000	0.342129
741.0000	0.341207
742.0000	0.338482
743.0000	0.338131
744.0000	0.335806
745.0000	0.334586
746.0000	0.332283
747.0000	0.333218
748.0000	0.333348
749.0000	0.330917
750.0000	0.334259
751.0000	0.332807
752.0000	0.330869
753.0000	0.332213
754.0000	0.328355
755.0000	0.329114
756.0000	0.329684
757.0000	0.331387
758.0000	0.33039
759.0000	0.333436
760.0000	0.333929
761.0000	0.336112
762.0000	0.333259
763.0000	0.337103
764.0000	0.338409
765.0000	0.337053
766.0000	0.33486
767.0000	0.332809
768.0000	0.332099
769.0000	0.333496
770.0000	0.336229
771.0000	0.337066
772.0000	0.339873
773.0000	0.341942
774.0000	0.339858
775.0000	0.338679
776.0000	0.340209
777.0000	0.34063
778.0000	0.340684
779.0000	0.339471
780.0000	0.338561
781.0000	0.340192
782.0000	0.337798
783.0000	0.337901
784.0000	0.337311
785.0000	0.336513
786.0000	0.337769
787.0000	0.33288
788.0000	0.331669
789.0000	0.332376
790.0000	0.332771
791.0000	0.334586
792.0000	0.335748
793.0000	0.332502
794.0000	0.333494
795.0000	0.335746
796.0000	0.335863
797.0000	0.331691
798.0000	0.330379
799.0000	0.333362
800.0000	0.336013

##### Extended Information
[Comments]
Sample name	582_10nM_cascade_blue
Comment
User
Division
Company	EMBL

[Detailed Information]
Creation date	12/7/2017 11:58 AM

Data array type	Linear data array
Horizontal axis	Wavelength [nm]
Vertical axis	Int.
Start	602 nm
End	800 nm
Data interval	1 nm
Data points	199     

[Measurement Information]
Model name	FP-8500
Serial No.	C010561452
  Ex filter holder	None
  Em filter holder	None

Accessory	ETC-815
Accessory S/N	A003861516
  Temperature	21.01 C
  Control sensor	Holder
  Monitor sensor	Holder
  Start mode	Start immediately

Accessory	FDP-837
Accessory S/N	A002061537
  Polarizer	Ex 0 degree, Em 0 degree

Measurement date	12/7/2017 11:58 AM

Mode	Emission
Ex bandwidth	5 nm
Em bandwidth	5 nm
Response	1 sec
Sensitivity	Medium
Measurement range	602 - 800 nm
Data interval	1 nm
Ex wavelength	582.0 nm
Scan speed	1000 nm/min
Auto gain	Off
Shutter control	Open only for measurement
Light source	Xe lamp
Filter	Stop scan for exchanging filter
Blank correction	Off

