TITLE	582_10nM_a594_CB
DATA TYPE	FLUORESCENCE SPECTRUM
ORIGIN	JASCO
OWNER	
DATE	17/12/07
TIME	12:25:25
SPECTROMETER/DATA SYSTEM	
LOCALE	1033
RESOLUTION	
DELTAX	1
XUNITS	NANOMETERS
YUNITS	INTENSITY
FIRSTX	  602.0000
LASTX	  800.0000
NPOINTS	     199
FIRSTY	    81.15626
MAXY	    88.99425
MINY	     0.34067
XYDATA
602.0000	81.1563
603.0000	83.0936
604.0000	84.7955
605.0000	86.1947
606.0000	87.355
607.0000	88.1685
608.0000	88.7686
609.0000	88.9942
610.0000	88.8211
611.0000	88.5133
612.0000	87.9029
613.0000	87.052
614.0000	86.0055
615.0000	84.6654
616.0000	83.1749
617.0000	81.487
618.0000	79.5951
619.0000	77.637
620.0000	75.6505
621.0000	73.4681
622.0000	71.2316
623.0000	68.8968
624.0000	66.5214
625.0000	64.1358
626.0000	61.6977
627.0000	59.3705
628.0000	57.0564
629.0000	54.6851
630.0000	52.3838
631.0000	50.1324
632.0000	47.9644
633.0000	45.8128
634.0000	43.7895
635.0000	41.8498
636.0000	39.9083
637.0000	38.0626
638.0000	36.3708
639.0000	34.6521
640.0000	33.0847
641.0000	31.5404
642.0000	30.1297
643.0000	28.7811
644.0000	27.5366
645.0000	26.3076
646.0000	25.1756
647.0000	24.1478
648.0000	23.1308
649.0000	22.1945
650.0000	21.3569
651.0000	20.5408
652.0000	19.7656
653.0000	19.0823
654.0000	18.376
655.0000	17.7452
656.0000	17.157
657.0000	16.6135
658.0000	16.1276
659.0000	15.602
660.0000	15.1212
661.0000	14.6404
662.0000	14.1899
663.0000	13.7604
664.0000	13.3234
665.0000	12.9126
666.0000	12.52
667.0000	12.1362
668.0000	11.7488
669.0000	11.3933
670.0000	11.0252
671.0000	10.6702
672.0000	10.3207
673.0000	9.98136
674.0000	9.64019
675.0000	9.30108
676.0000	8.9761
677.0000	8.65566
678.0000	8.35068
679.0000	8.04854
680.0000	7.76669
681.0000	7.48433
682.0000	7.18505
683.0000	6.90962
684.0000	6.65052
685.0000	6.39346
686.0000	6.13899
687.0000	5.8943
688.0000	5.6672
689.0000	5.42919
690.0000	5.20323
691.0000	4.98826
692.0000	4.78135
693.0000	4.59058
694.0000	4.3972
695.0000	4.2068
696.0000	4.03418
697.0000	3.85238
698.0000	3.70444
699.0000	3.5566
700.0000	3.41241
701.0000	3.26936
702.0000	3.12799
703.0000	3.00402
704.0000	2.87255
705.0000	2.75167
706.0000	2.64355
707.0000	2.54411
708.0000	2.4595
709.0000	2.35248
710.0000	2.25465
711.0000	2.16793
712.0000	2.07499
713.0000	1.99292
714.0000	1.91109
715.0000	1.83093
716.0000	1.75007
717.0000	1.67358
718.0000	1.61206
719.0000	1.54877
720.0000	1.49232
721.0000	1.44283
722.0000	1.38686
723.0000	1.32903
724.0000	1.27892
725.0000	1.23455
726.0000	1.199
727.0000	1.16089
728.0000	1.13195
729.0000	1.0932
730.0000	1.05321
731.0000	1.0282
732.0000	0.999017
733.0000	0.981511
734.0000	0.952555
735.0000	0.920384
736.0000	0.889933
737.0000	0.858247
738.0000	0.832327
739.0000	0.808313
740.0000	0.787221
741.0000	0.768603
742.0000	0.745756
743.0000	0.725633
744.0000	0.707294
745.0000	0.686709
746.0000	0.672684
747.0000	0.662163
748.0000	0.645056
749.0000	0.629059
750.0000	0.616366
751.0000	0.608122
752.0000	0.5991
753.0000	0.593324
754.0000	0.579608
755.0000	0.572913
756.0000	0.566353
757.0000	0.557135
758.0000	0.54881
759.0000	0.541312
760.0000	0.529954
761.0000	0.524464
762.0000	0.515503
763.0000	0.508923
764.0000	0.497801
765.0000	0.490063
766.0000	0.485026
767.0000	0.47308
768.0000	0.46053
769.0000	0.456819
770.0000	0.448241
771.0000	0.438003
772.0000	0.433083
773.0000	0.425702
774.0000	0.422324
775.0000	0.415389
776.0000	0.41211
777.0000	0.410086
778.0000	0.402777
779.0000	0.402268
780.0000	0.400151
781.0000	0.396409
782.0000	0.391464
783.0000	0.387295
784.0000	0.383465
785.0000	0.3813
786.0000	0.376787
787.0000	0.375088
788.0000	0.375071
789.0000	0.369832
790.0000	0.365861
791.0000	0.363176
792.0000	0.361416
793.0000	0.355753
794.0000	0.352875
795.0000	0.349994
796.0000	0.347922
797.0000	0.347449
798.0000	0.34521
799.0000	0.340673
800.0000	0.342625

##### Extended Information
[Comments]
Sample name	582_10nM_a594_CB
Comment
User
Division
Company	EMBL

[Detailed Information]
Creation date	12/7/2017 12:25 PM

Data array type	Linear data array
Horizontal axis	Wavelength [nm]
Vertical axis	Int.
Start	602 nm
End	800 nm
Data interval	1 nm
Data points	199     

[Measurement Information]
Model name	FP-8500
Serial No.	C010561452
  Ex filter holder	None
  Em filter holder	None

Accessory	ETC-815
Accessory S/N	A003861516
  Temperature	21.01 C
  Control sensor	Holder
  Monitor sensor	Holder
  Start mode	Start immediately

Accessory	FDP-837
Accessory S/N	A002061537
  Polarizer	Ex 0 degree, Em 0 degree

Measurement date	12/7/2017 12:25 PM

Mode	Emission
Ex bandwidth	5 nm
Em bandwidth	5 nm
Response	1 sec
Sensitivity	Medium
Measurement range	602 - 800 nm
Data interval	1 nm
Ex wavelength	582.0 nm
Scan speed	1000 nm/min
Auto gain	Off
Shutter control	Open only for measurement
Light source	Xe lamp
Filter	Stop scan for exchanging filter
Blank correction	Off

