TITLE	590_10nM_a594
DATA TYPE	FLUORESCENCE SPECTRUM
ORIGIN	JASCO
OWNER	
DATE	17/12/07
TIME	12:07:17
SPECTROMETER/DATA SYSTEM	
LOCALE	1033
RESOLUTION	
DELTAX	1
XUNITS	NANOMETERS
YUNITS	INTENSITY
FIRSTX	  610.0000
LASTX	  800.0000
NPOINTS	     191
FIRSTY	   119.40860
MAXY	   119.40860
MINY	     0.37147
XYDATA
610.0000	119.409
611.0000	118.943
612.0000	118.065
613.0000	116.877
614.0000	115.423
615.0000	113.614
616.0000	111.59
617.0000	109.378
618.0000	106.963
619.0000	104.346
620.0000	101.574
621.0000	98.6557
622.0000	95.5966
623.0000	92.5503
624.0000	89.4539
625.0000	86.3298
626.0000	83.1872
627.0000	80.0515
628.0000	76.9246
629.0000	73.8752
630.0000	70.7903
631.0000	67.7646
632.0000	64.8676
633.0000	61.9788
634.0000	59.2764
635.0000	56.6384
636.0000	54.0707
637.0000	51.654
638.0000	49.3312
639.0000	47.1281
640.0000	44.9691
641.0000	42.9573
642.0000	41.1032
643.0000	39.2579
644.0000	37.5512
645.0000	35.9243
646.0000	34.3913
647.0000	32.9823
648.0000	31.6682
649.0000	30.3984
650.0000	29.1805
651.0000	28.0425
652.0000	26.9845
653.0000	26.0491
654.0000	25.0991
655.0000	24.2258
656.0000	23.3953
657.0000	22.6028
658.0000	21.833
659.0000	21.1206
660.0000	20.4616
661.0000	19.8236
662.0000	19.1945
663.0000	18.6174
664.0000	18.0343
665.0000	17.4686
666.0000	16.9304
667.0000	16.4209
668.0000	15.8872
669.0000	15.3591
670.0000	14.845
671.0000	14.3657
672.0000	13.8829
673.0000	13.4132
674.0000	12.9412
675.0000	12.4962
676.0000	12.0201
677.0000	11.565
678.0000	11.1396
679.0000	10.7398
680.0000	10.354
681.0000	9.97136
682.0000	9.60852
683.0000	9.21887
684.0000	8.87175
685.0000	8.52881
686.0000	8.20339
687.0000	7.86596
688.0000	7.52815
689.0000	7.24061
690.0000	6.94763
691.0000	6.67335
692.0000	6.37613
693.0000	6.12641
694.0000	5.87985
695.0000	5.64789
696.0000	5.39743
697.0000	5.16699
698.0000	4.93299
699.0000	4.74217
700.0000	4.54454
701.0000	4.35497
702.0000	4.16698
703.0000	3.99062
704.0000	3.81622
705.0000	3.66015
706.0000	3.49451
707.0000	3.34106
708.0000	3.19689
709.0000	3.06217
710.0000	2.9306
711.0000	2.81559
712.0000	2.69396
713.0000	2.58225
714.0000	2.46525
715.0000	2.35394
716.0000	2.25108
717.0000	2.15163
718.0000	2.05754
719.0000	1.97225
720.0000	1.89792
721.0000	1.83607
722.0000	1.76543
723.0000	1.69956
724.0000	1.64273
725.0000	1.58561
726.0000	1.53248
727.0000	1.47746
728.0000	1.42025
729.0000	1.37707
730.0000	1.333
731.0000	1.29536
732.0000	1.25463
733.0000	1.22535
734.0000	1.20056
735.0000	1.16538
736.0000	1.13303
737.0000	1.09891
738.0000	1.06307
739.0000	1.03239
740.0000	0.99661
741.0000	0.974236
742.0000	0.951571
743.0000	0.919934
744.0000	0.897085
745.0000	0.875873
746.0000	0.849247
747.0000	0.825868
748.0000	0.801902
749.0000	0.780957
750.0000	0.758474
751.0000	0.740331
752.0000	0.722614
753.0000	0.707151
754.0000	0.689592
755.0000	0.678251
756.0000	0.664042
757.0000	0.656099
758.0000	0.645047
759.0000	0.633071
760.0000	0.623723
761.0000	0.614667
762.0000	0.603172
763.0000	0.589308
764.0000	0.576804
765.0000	0.567228
766.0000	0.555411
767.0000	0.542633
768.0000	0.531074
769.0000	0.520975
770.0000	0.509596
771.0000	0.500118
772.0000	0.492961
773.0000	0.483482
774.0000	0.476148
775.0000	0.462531
776.0000	0.454326
777.0000	0.448382
778.0000	0.438818
779.0000	0.437926
780.0000	0.434697
781.0000	0.429218
782.0000	0.426004
783.0000	0.420598
784.0000	0.415793
785.0000	0.413496
786.0000	0.408749
787.0000	0.405757
788.0000	0.400511
789.0000	0.396583
790.0000	0.393339
791.0000	0.388231
792.0000	0.387893
793.0000	0.380609
794.0000	0.380948
795.0000	0.378896
796.0000	0.376573
797.0000	0.373675
798.0000	0.373063
799.0000	0.373423
800.0000	0.371467

##### Extended Information
[Comments]
Sample name	590_10nM_a594
Comment
User
Division
Company	EMBL

[Detailed Information]
Creation date	12/7/2017 12:07 PM

Data array type	Linear data array
Horizontal axis	Wavelength [nm]
Vertical axis	Int.
Start	610 nm
End	800 nm
Data interval	1 nm
Data points	191     

[Measurement Information]
Model name	FP-8500
Serial No.	C010561452
  Ex filter holder	None
  Em filter holder	None

Accessory	ETC-815
Accessory S/N	A003861516
  Temperature	20.94 C
  Control sensor	Holder
  Monitor sensor	Holder
  Start mode	Start immediately

Accessory	FDP-837
Accessory S/N	A002061537
  Polarizer	Ex 0 degree, Em 0 degree

Measurement date	12/7/2017 12:07 PM

Mode	Emission
Ex bandwidth	5 nm
Em bandwidth	5 nm
Response	1 sec
Sensitivity	Medium
Measurement range	610 - 800 nm
Data interval	1 nm
Ex wavelength	590.0 nm
Scan speed	1000 nm/min
Auto gain	Off
Shutter control	Open only for measurement
Light source	Xe lamp
Filter	Stop scan for exchanging filter
Blank correction	Off

